RV32IMF_fsm.core/risc_v.vcd
$date
	Wed Apr 16 13:14:55 2025
$end
$version
	Icarus Verilog
$end
$timescale
	1ps
$end
$scope module risc_v_tb $end
$var reg 1 ! clk $end
$var reg 1 " rst $end
$scope module dut $end
$var wire 1 ! clk $end
$var wire 1 # flush $end
$var wire 1 " rst $end
$var wire 32 $ write_data_W [31:0] $end
$var wire 1 % stall $end
$var wire 1 & reg_write_o $end
$var wire 32 ' read_data_M [31:0] $end
$var wire 32 ( read_data2_D [31:0] $end
$var wire 32 ) read_data1_D [31:0] $end
$var wire 32 * pc_F [31:0] $end
$var wire 1 + mul_en_D $end
$var wire 1 , mem_write_D $end
$var wire 1 - mem_to_reg_D $end
$var wire 1 . mem_read_D $end
$var wire 32 / jump_target_E [31:0] $end
$var wire 2 0 jump_D [1:0] $end
$var wire 32 1 instruction_F [31:0] $end
$var wire 32 2 imm_out_D [31:0] $end
$var wire 32 3 branch_target_E [31:0] $end
$var wire 1 4 branch_sel_E $end
$var wire 1 5 branch_D $end
$var wire 1 6 alu_src_D $end
$var wire 32 7 alu_result_E [31:0] $end
$var wire 4 8 alu_control_D [3:0] $end
$var reg 4 9 alu_control_E [3:0] $end
$var reg 32 : alu_result_M [31:0] $end
$var reg 32 ; alu_result_W [31:0] $end
$var reg 1 < alu_src_E $end
$var reg 1 = branch_E $end
$var reg 32 > imm_out_E [31:0] $end
$var reg 32 ? instruction_D [31:0] $end
$var reg 32 @ instruction_E [31:0] $end
$var reg 32 A instruction_M [31:0] $end
$var reg 32 B instruction_W [31:0] $end
$var reg 2 C jump_E [1:0] $end
$var reg 1 D mem_read_E $end
$var reg 1 E mem_read_M $end
$var reg 1 F mem_to_reg_E $end
$var reg 1 G mem_to_reg_M $end
$var reg 1 H mem_to_reg_W $end
$var reg 1 I mem_write_E $end
$var reg 1 J mem_write_M $end
$var reg 1 K mul_en_E $end
$var reg 32 L pc_D [31:0] $end
$var reg 32 M pc_E [31:0] $end
$var reg 32 N pc_nxt_f [31:0] $end
$var reg 1 O pc_sel_f $end
$var reg 32 P read_data_W [31:0] $end
$var reg 1 Q reg_write_D $end
$var reg 1 R reg_write_E $end
$var reg 1 S reg_write_M $end
$var reg 1 T reg_write_W $end
$var reg 32 U rs1_E [31:0] $end
$var reg 32 V rs2_E [31:0] $end
$var reg 32 W rs2_M [31:0] $end
$var reg 32 X write_data_D [31:0] $end
$scope module decode_inst $end
$var wire 1 ! clk $end
$var wire 32 Y instruction [31:0] $end
$var wire 1 + mul_en $end
$var wire 5 Z read_reg1 [4:0] $end
$var wire 5 [ read_reg2 [4:0] $end
$var wire 1 T reg_write_i $end
$var wire 1 " rst $end
$var wire 5 \ write_reg [4:0] $end
$var wire 32 ] write_data [31:0] $end
$var wire 1 & reg_write_o $end
$var wire 32 ^ read_data2 [31:0] $end
$var wire 32 _ read_data1 [31:0] $end
$var wire 1 ` mul_en_sel $end
$var wire 1 , mem_write $end
$var wire 1 - mem_to_reg $end
$var wire 1 . mem_read $end
$var wire 2 a jump [1:0] $end
$var wire 32 b imm_out [31:0] $end
$var wire 1 5 branch $end
$var wire 1 6 alu_src $end
$var wire 2 c alu_op_wire [1:0] $end
$var wire 4 d alu_control [3:0] $end
$scope module alu_decoder_inst $end
$var wire 3 e funct3 [2:0] $end
$var wire 7 f funct7 [6:0] $end
$var wire 7 g opcode [6:0] $end
$var wire 2 h alu_op [1:0] $end
$var wire 1 ` alu_en $end
$var reg 4 i alu_control [3:0] $end
$upscope $end
$scope module imm_gen_inst $end
$var wire 32 j instruction [31:0] $end
$var reg 32 k imm_out [31:0] $end
$upscope $end
$scope module opcode_decoder_inst $end
$var wire 32 l instruction [31:0] $end
$var wire 1 & reg_write $end
$var wire 1 ` mul_en $end
$var wire 1 , mem_write $end
$var wire 1 - mem_to_reg $end
$var wire 1 . mem_read $end
$var wire 2 m jump [1:0] $end
$var wire 1 5 branch $end
$var wire 1 6 alu_src $end
$var wire 2 n alu_op [1:0] $end
$var reg 11 o controls [10:0] $end
$var reg 7 p function7 [6:0] $end
$var reg 7 q opcode [6:0] $end
$upscope $end
$scope module register_inst $end
$var wire 1 ! clk $end
$var wire 5 r read_reg1 [4:0] $end
$var wire 5 s read_reg2 [4:0] $end
$var wire 1 T reg_write $end
$var wire 1 " rst $end
$var wire 5 t write_reg [4:0] $end
$var wire 32 u write_data [31:0] $end
$var wire 32 v read_data2 [31:0] $end
$var wire 32 w read_data1 [31:0] $end
$var integer 32 x i [31:0] $end
$upscope $end
$upscope $end
$scope module execute_inst $end
$var wire 4 y alu_control [3:0] $end
$var wire 1 < alu_src $end
$var wire 1 = branch $end
$var wire 3 z funct3 [2:0] $end
$var wire 32 { imm_out [31:0] $end
$var wire 2 | jump [1:0] $end
$var wire 1 K mul_en $end
$var wire 32 } pc [31:0] $end
$var wire 32 ~ result [31:0] $end
$var wire 32 !" rs1 [31:0] $end
$var wire 32 "" rs2 [31:0] $end
$var wire 32 #" mdu_result [31:0] $end
$var wire 32 $" jump_target [31:0] $end
$var wire 32 %" branch_target [31:0] $end
$var wire 1 4 branch_sel $end
$var wire 32 &" alu_result [31:0] $end
$var wire 32 '" alu_input2 [31:0] $end
$var reg 32 (" final_result [31:0] $end
$scope module ALU_inst $end
$var wire 4 )" alu_control [3:0] $end
$var wire 2 *" jump [1:0] $end
$var wire 32 +" pc [31:0] $end
$var wire 32 ," rs1 [31:0] $end
$var wire 32 -" src2 [31:0] $end
$var reg 32 ." alu_result [31:0] $end
$upscope $end
$scope module MDU_inst $end
$var wire 3 /" function3 [2:0] $end
$var wire 32 0" rs1 [31:0] $end
$var wire 32 1" rs2 [31:0] $end
$var reg 32 2" mdu_result [31:0] $end
$upscope $end
$scope module branch_comp_inst $end
$var wire 1 = branch $end
$var wire 3 3" funct3 [2:0] $end
$var wire 32 4" rs1 [31:0] $end
$var wire 32 5" rs2 [31:0] $end
$var reg 1 4 branch_sel $end
$upscope $end
$upscope $end
$scope module fetch_inst $end
$var wire 1 ! clk $end
$var wire 32 6" pc_nxt [31:0] $end
$var wire 1 O pc_sel $end
$var wire 1 " rst $end
$var wire 1 % stall $end
$var wire 32 7" pc_out [31:0] $end
$var wire 32 8" instruction [31:0] $end
$scope module imem_inst $end
$var wire 1 " rst $end
$var wire 32 9" rd [31:0] $end
$var wire 32 :" address [31:0] $end
$upscope $end
$scope module pc_inst $end
$var wire 1 ! clk $end
$var wire 32 ;" pc_nxt [31:0] $end
$var wire 1 O pc_sel $end
$var wire 1 " rst $end
$var wire 1 % stall $end
$var reg 32 <" pc_out [31:0] $end
$upscope $end
$upscope $end
$scope module hazard_detection_inst $end
$var wire 5 =" rd_E [4:0] $end
$var wire 5 >" rd_M [4:0] $end
$var wire 5 ?" rd_W [4:0] $end
$var wire 1 R reg_write_E $end
$var wire 1 S reg_write_M $end
$var wire 1 T reg_write_W $end
$var wire 5 @" rs1_D [4:0] $end
$var wire 5 A" rs2_D [4:0] $end
$var reg 1 % stall $end
$upscope $end
$scope module memory_inst $end
$var wire 32 B" alu_result [31:0] $end
$var wire 1 ! clk $end
$var wire 3 C" funct3 [2:0] $end
$var wire 1 E mem_read $end
$var wire 1 J mem_write $end
$var wire 1 " rst $end
$var wire 32 D" write_data [31:0] $end
$var wire 32 E" read_data [31:0] $end
$scope module data_memory_inst $end
$var wire 32 F" address [31:0] $end
$var wire 1 ! clk $end
$var wire 3 G" funct3 [2:0] $end
$var wire 1 E mem_read $end
$var wire 1 J mem_write $end
$var wire 1 " rst $end
$var wire 32 H" write_data [31:0] $end
$var reg 32 I" read_data [31:0] $end
$var integer 32 J" i [31:0] $end
$upscope $end
$upscope $end
$scope module writeback_inst $end
$var wire 32 K" alu_result [31:0] $end
$var wire 1 H mem_to_reg $end
$var wire 32 L" read_data [31:0] $end
$var wire 32 M" write_data [31:0] $end
$upscope $end
$upscope $end
$upscope $end
$enddefinitions $end
$comment Show the parameter values. $end
$dumpall
$end
#0
$dumpvars
bx M"
bx L"
bx K"
bx J"
bx I"
bx H"
bx G"
bx F"
bx E"
bx D"
bx C"
bx B"
bx A"
bx @"
bx ?"
bx >"
bx ="
bx <"
bx ;"
bx :"
b0 9"
b0 8"
bx 7"
bx 6"
bx 5"
bx 4"
bx 3"
bx 2"
bx 1"
bx 0"
bx /"
bx ."
bx -"
bx ,"
bx +"
bx *"
bx )"
bx ("
bx '"
bx &"
bx %"
bx $"
bx #"
bx ""
bx !"
bx ~
bx }
bx |
bx {
bx z
bx y
b100000 x
bx w
bx v
bx u
bx t
bx s
bx r
bx q
bx p
bx o
bx n
bx m
bx l
bx k
bx j
bx i
bx h
bx g
bx f
bx e
bx d
bx c
bx b
bx a
x`
bx _
bx ^
bx ]
bx \
bx [
bx Z
bx Y
bx X
bx W
bx V
bx U
xT
xS
xR
xQ
bx P
xO
bx N
bx M
bx L
xK
xJ
xI
xH
xG
xF
xE
xD
bx C
bx B
bx A
bx @
bx ?
bx >
x=
x<
bx ;
bx :
bx 9
bx 8
bx 7
x6
x5
x4
bx 3
bx 2
b0 1
bx 0
bx /
x.
x-
x,
x+
bx *
bx )
bx (
bx '
x&
x%
bx $
x#
1"
1!
$end
#50000
0!
#100000
b0 7
b0 ~
b0 ("
b0 &"
b0 ."
0%
b0 8
b0 d
b0 i
b0 )
b0 _
b0 w
b0 (
b0 ^
b0 v
0+
0`
05
0.
0-
0,
06
0&
b0 0
b0 a
b0 m
b0 c
b0 h
b0 n
b0 $
b0 ]
b0 u
b0 M"
b0 C"
b0 G"
b0 >"
0#
b0 /
b0 $"
b0 N
b0 6"
b0 ;"
b0 '"
b0 -"
b0 #"
b0 2"
04
b0 z
b0 /"
b0 3"
b0 ="
b0 Z
b0 [
b0 @"
b0 A"
b0 f
b0 e
b0 g
b0 r
b0 s
b0 2
b0 b
b0 k
b0 o
b0 p
b0 q
b0 '
b0 E"
b0 I"
0H
b0 P
b0 L"
b0 ;
b0 K"
0G
0E
b0 W
b0 D"
b0 H"
b0 :
b0 B"
b0 F"
b0 A
b0 C
b0 |
b0 *"
0F
0D
0<
b0 9
b0 y
b0 )"
b0 3
b0 %"
b0 >
b0 {
b0 V
b0 ""
b0 1"
b0 5"
b0 U
b0 !"
b0 ,"
b0 0"
b0 4"
b0 M
b0 }
b0 +"
b0 @
b0 X
b0 L
b0 ?
b0 Y
b0 j
b0 l
0O
b0 *
b0 7"
b0 :"
b0 <"
b100000 x
b1111111111 J"
1!
#150000
0!
#200000
b10100000000001010010011 1
b10100000000001010010011 8"
b10100000000001010010011 9"
0"
b100000 x
b1111111111 J"
1!
#250000
0!
#300000
16
1&
b10 c
b10 h
b10 n
b11000000000001100010011 1
b11000000000001100010011 8"
b11000000000001100010011 9"
b0 \
b0 t
b0 ?"
b101 [
b101 A"
b10011 g
b101 s
b101 2
b101 b
b101 k
b110010 o
b10011 q
b0 B
0R
0=
0I
b10100000000001010010011 ?
b10100000000001010010011 Y
b10100000000001010010011 j
b10100000000001010010011 l
b100 *
b100 7"
b100 :"
b100 <"
0K
1!
#350000
0!
#400000
b101 7
b101 ~
b101 ("
b1100000000000000011101111 1
b1100000000000000011101111 8"
b1100000000000000011101111 9"
b101 &"
b101 ."
b101 ="
b101 '"
b101 -"
b101 /
b101 $"
b101 N
b101 6"
b101 ;"
b110 [
b110 A"
b110 s
b110 2
b110 b
b110 k
b1000 *
b1000 7"
b1000 :"
b1000 <"
b10100000000001010010011 @
0S
0J
1R
1<
b101 3
b101 %"
b101 >
b101 {
b100 L
b11000000000001100010011 ?
b11000000000001100010011 Y
b11000000000001100010011 j
b11000000000001100010011 l
1!
#450000
0!
#500000
b110 7
b110 ~
b110 ("
06
b10 0
b10 a
b10 m
b0 c
b0 h
b0 n
b11100000000001110010011 1
b11100000000001110010011 8"
b11100000000001110010011 9"
b110 &"
b110 ."
b110 ="
b101 >"
b110 '"
b110 -"
b1010 /
b1010 $"
b1010 N
b1010 6"
b1010 ;"
b11000 [
b11000 A"
b1101111 g
b11000 s
b11000 2
b11000 b
b11000 k
b11000 o
b1101111 q
b100 M
b100 }
b100 +"
b11000000000001100010011 @
0T
1S
b101 :
b101 B"
b101 F"
b10100000000001010010011 A
b1010 3
b1010 %"
b110 >
b110 {
b1000 L
b1100000000000000011101111 ?
b1100000000000000011101111 Y
b1100000000000000011101111 j
b1100000000000000011101111 l
b1100 *
b1100 7"
b1100 :"
b1100 <"
1!
#550000
0!
#600000
b100000000000010000010011 1
b100000000000010000010011 8"
b100000000000010000010011 9"
b1100 7
b1100 ~
b1100 ("
b100000 N
b100000 6"
b100000 ;"
16
b0 0
b0 a
b0 m
b10 c
b10 h
b10 n
1#
b1100 &"
b1100 ."
b1 ="
b101 $
b101 ]
b101 u
b101 M"
b101 \
b101 t
b101 ?"
b110 >"
b0 '"
b0 -"
b100000 /
b100000 $"
1O
b111 [
b111 A"
b10011 g
b111 s
b111 2
b111 b
b111 k
b110010 o
b10011 q
b10000 *
b10000 7"
b10000 :"
b10000 <"
b10 C
b10 |
b10 *"
b1000 M
b1000 }
b1000 +"
b1100000000000000011101111 @
0Q
1T
b101 ;
b101 K"
b10100000000001010010011 B
b110 :
b110 B"
b110 F"
b11000000000001100010011 A
0<
b100000 3
b100000 %"
b11000 >
b11000 {
b1100 L
b11100000000001110010011 ?
b11100000000001110010011 Y
b11100000000001110010011 j
b11100000000001110010011 l
1!
#650000
0!
#700000
b111 7
b111 ~
b111 ("
b11000101000011000110011 1
b11000101000011000110011 8"
b11000101000011000110011 9"
0#
b111 &"
b111 ."
b0 ="
b110 $
b110 ]
b110 u
b110 M"
b110 \
b110 t
b110 ?"
b1 >"
b111 '"
b111 -"
b10011 /
b10011 $"
b10011 N
b10011 6"
b10011 ;"
0O
b0 [
b0 A"
b0 s
b0 2
b0 b
b0 k
b0 C
b0 |
b0 *"
b1100 M
b1100 }
b1100 +"
b10011 @
1Q
b101 X
b110 ;
b110 K"
b11000000000001100010011 B
b1100 :
b1100 B"
b1100 F"
b1100000000000000011101111 A
1<
b10011 3
b10011 %"
b111 >
b111 {
b10000 L
b10011 ?
b10011 Y
b10011 j
b10011 l
b100000 *
b100000 7"
b100000 :"
b100000 <"
1!
#750000
0!
#800000
b11001000110000001100010011 1
b11001000110000001100010011 8"
b11001000110000001100010011 9"
b0 7
b0 ~
b0 ("
b101 )
b101 _
b101 w
b110 (
b110 ^
b110 v
06
b0 &"
b0 ."
b1100 $
b1100 ]
b1100 u
b1100 M"
b1 \
b1 t
b1 ?"
b0 >"
b0 '"
b0 -"
b10000 /
b10000 $"
b10000 N
b10000 6"
b10000 ;"
b101 Z
b110 [
b101 @"
b110 A"
b110011 g
b101 r
b110 s
b10010 o
b110011 q
b100100 *
b100100 7"
b100100 :"
b100100 <"
b10000 M
b10000 }
b10000 +"
b110 X
b1100 ;
b1100 K"
b1100000000000000011101111 B
b111 :
b111 B"
b111 F"
b10011 A
b10000 3
b10000 %"
b0 >
b0 {
b100000 L
b11000101000011000110011 ?
b11000101000011000110011 Y
b11000101000011000110011 j
b11000101000011000110011 l
1!
#850000
0!
#900000
b1011 7
b1011 ~
b1011 ("
b110 )
b110 _
b110 w
b0 (
b0 ^
b0 v
16
b110000011011100111 1
b110000011011100111 8"
b110000011011100111 9"
b100000 /
b100000 $"
b100000 N
b100000 6"
b100000 ;"
b1100 ="
b111 $
b111 ]
b111 u
b111 M"
b0 \
b0 t
b0 ?"
b110 '"
b110 -"
b1011 &"
b1011 ."
b11110 #"
b11110 2"
b110 Z
b10010 [
b110 @"
b10010 A"
b1 f
b10011 g
b110 r
b10010 s
b110010 2
b110010 b
b110010 k
b110010 o
b1 p
b10011 q
b100000 3
b100000 %"
b100000 M
b100000 }
b100000 +"
b11000101000011000110011 @
b1100 X
b111 ;
b111 K"
b10011 B
b0 :
b0 B"
b0 F"
0<
b110 V
b110 ""
b110 1"
b110 5"
b101 U
b101 !"
b101 ,"
b101 0"
b101 4"
b100100 L
b11001000110000001100010011 ?
b11001000110000001100010011 Y
b11001000110000001100010011 j
b11001000110000001100010011 l
b101000 *
b101000 7"
b101000 :"
b101000 <"
1!
#950000
0!
#1000000
b111100000000011010010011 1
b111100000000011010010011 8"
b111100000000011010010011 9"
b111000 7
b111000 ~
b111000 ("
1%
b1 0
b1 a
b1 m
b0 c
b0 h
b0 n
b110 ="
b0 $
b0 ]
b0 u
b0 M"
b1100 >"
b1010110 /
b1010110 $"
b1010110 N
b1010110 6"
b1010110 ;"
b110010 '"
b110010 -"
b111000 &"
b111000 ."
b0 #"
b0 2"
b0 [
b0 A"
b0 f
b1100111 g
b0 s
b0 2
b0 b
b0 k
b110100 o
b0 p
b1100111 q
b101100 *
b101100 7"
b101100 :"
b101100 <"
b100100 M
b100100 }
b100100 +"
b11001000110000001100010011 @
b111 X
b0 ;
b0 K"
b110 W
b110 D"
b110 H"
b1011 :
b1011 B"
b1011 F"
b11000101000011000110011 A
1<
b1010110 3
b1010110 %"
b110010 >
b110010 {
b0 V
b0 ""
b0 1"
b0 5"
b110 U
b110 !"
b110 ,"
b110 0"
b110 4"
b101000 L
b110000011011100111 ?
b110000011011100111 Y
b110000011011100111 j
b110000011011100111 l
1!
#1050000
0!
#1100000
b110 7
b110 ~
b110 ("
b110 &"
b110 ."
b0 ="
b1011 $
b1011 ]
b1011 u
b1011 M"
b1100 \
b1100 t
b1100 ?"
b110 >"
b0 '"
b0 -"
b100100 /
b100100 $"
b100100 N
b100100 6"
b100100 ;"
b10011 @
b0 X
b1011 ;
b1011 K"
b11000101000011000110011 B
b0 W
b0 D"
b0 H"
b111000 :
b111000 B"
b111000 F"
b11001000110000001100010011 A
b100100 3
b100100 %"
b0 >
b0 {
b101000 L
b110000011011100111 ?
b110000011011100111 Y
b110000011011100111 j
b110000011011100111 l
1!
#1150000
0!
#1200000
b111000 $
b111000 ]
b111000 u
b111000 M"
b110 \
b110 t
b110 ?"
b0 >"
b1011 X
b111000 ;
b111000 K"
b11001000110000001100010011 B
b110 :
b110 B"
b110 F"
b10011 A
b101000 L
b110000011011100111 ?
b110000011011100111 Y
b110000011011100111 j
b110000011011100111 l
1!
#1250000
0!
#1300000
0%
b111000 )
b111000 _
b111000 w
b110 $
b110 ]
b110 u
b110 M"
b0 \
b0 t
b0 ?"
b111000 X
b110 ;
b110 K"
b10011 B
b101000 L
b110000011011100111 ?
b110000011011100111 Y
b110000011011100111 j
b110000011011100111 l
1!
#1350000
0!
#1400000
b1000000000000011100010011 1
b1000000000000011100010011 8"
b1000000000000011100010011 9"
b111000 N
b111000 6"
b111000 ;"
b101100 7
b101100 ~
b101100 ("
b0 )
b0 _
b0 w
b0 0
b0 a
b0 m
b10 c
b10 h
b10 n
1#
b111000 /
b111000 $"
1O
b1101 ="
b101100 &"
b101100 ."
b0 Z
b1111 [
b0 @"
b1111 A"
b10011 g
b0 r
b1111 s
b1111 2
b1111 b
b1111 k
b110010 o
b10011 q
b110000 *
b110000 7"
b110000 :"
b110000 <"
b1 C
b1 |
b1 *"
b101000 3
b101000 %"
b101000 M
b101000 }
b101000 +"
b110000011011100111 @
b110 X
b111000 U
b111000 !"
b111000 ,"
b111000 0"
b111000 4"
b101100 L
b111100000000011010010011 ?
b111100000000011010010011 Y
b111100000000011010010011 j
b111100000000011010010011 l
1!
#1450000
0!
#1500000
b1111 7
b1111 ~
b1111 ("
b100101000001010010011 1
b100101000001010010011 8"
b100101000001010010011 9"
b0 ="
0#
b111011 /
b111011 $"
b1101 >"
b1111 '"
b1111 -"
b111011 N
b111011 6"
b111011 ;"
0O
b1111 &"
b1111 ."
b0 [
b0 A"
b0 s
b0 2
b0 b
b0 k
b0 C
b0 |
b0 *"
b101100 M
b101100 }
b101100 +"
b10011 @
b101100 :
b101100 B"
b101100 F"
b110000011011100111 A
b111011 3
b111011 %"
b1111 >
b1111 {
b0 U
b0 !"
b0 ,"
b0 0"
b0 4"
b110000 L
b10011 ?
b10011 Y
b10011 j
b10011 l
b111000 *
b111000 7"
b111000 :"
b111000 <"
1!
#1550000
0!
#1600000
bx 1
bx 8"
bx 9"
b0 7
b0 ~
b0 ("
b101 )
b101 _
b101 w
b1100 (
b1100 ^
b1100 v
b0 &"
b0 ."
b101100 $
b101100 ]
b101100 u
b101100 M"
b1101 \
b1101 t
b1101 ?"
b0 >"
b0 '"
b0 -"
b110000 /
b110000 $"
b110000 N
b110000 6"
b110000 ;"
b101 Z
b1 [
b101 @"
b1 A"
b101 r
b1 s
b1 2
b1 b
b1 k
b111100 *
b111100 7"
b111100 :"
b111100 <"
b110000 M
b110000 }
b110000 +"
b101100 ;
b101100 K"
b110000011011100111 B
b1111 :
b1111 B"
b1111 F"
b10011 A
b110000 3
b110000 %"
b0 >
b0 {
b111000 L
b100101000001010010011 ?
b100101000001010010011 Y
b100101000001010010011 j
b100101000001010010011 l
1!
#1650000
0!
#1700000
b110 7
b110 ~
b110 ("
bx )
bx _
bx w
bx (
bx ^
bx v
06
0&
b0 c
b0 h
b0 n
b101 ="
b1111 $
b1111 ]
b1111 u
b1111 M"
b0 \
b0 t
b0 ?"
b1 '"
b1 -"
b111001 /
b111001 $"
b111001 N
b111001 6"
b111001 ;"
b110 &"
b110 ."
b111100 #"
b111100 2"
bx Z
bx [
bx @"
bx A"
bx f
bx e
bx g
bx r
bx s
b0 2
b0 b
b0 k
b0 o
bx p
bx q
b111000 M
b111000 }
b111000 +"
b100101000001010010011 @
b101100 X
b1111 ;
b1111 K"
b10011 B
b0 :
b0 B"
b0 F"
b111001 3
b111001 %"
b1 >
b1 {
b1100 V
b1100 ""
b1100 1"
b1100 5"
b101 U
b101 !"
b101 ,"
b101 0"
b101 4"
b111100 L
bx ?
bx Y
bx j
bx l
b1000000 *
b1000000 7"
b1000000 :"
b1000000 <"
1!
#1750000
0!
#1800000
bx 7
bx ~
bx ("
bx z
bx /"
bx 3"
bx ="
b0 $
b0 ]
b0 u
b0 M"
b101 >"
bx '"
bx -"
b111100 /
b111100 $"
b111100 N
b111100 6"
b111100 ;"
bx &"
bx ."
b0 #"
b0 2"
b1000100 *
b1000100 7"
b1000100 :"
b1000100 <"
b111100 M
b111100 }
b111100 +"
bx @
b1111 X
b0 ;
b0 K"
b1100 W
b1100 D"
b1100 H"
b110 :
b110 B"
b110 F"
b100101000001010010011 A
0R
0<
b111100 3
b111100 %"
b0 >
b0 {
bx V
bx ""
bx 1"
bx 5"
bx U
bx !"
bx ,"
bx 0"
bx 4"
b1000000 L
1!
#1850000
0!
#1900000
b1000000 /
b1000000 $"
b1000000 N
b1000000 6"
b1000000 ;"
b110 $
b110 ]
b110 u
b110 M"
b101 \
b101 t
b101 ?"
bx C"
bx G"
bx >"
b1000000 3
b1000000 %"
b1000000 M
b1000000 }
b1000000 +"
b0 X
b110 ;
b110 K"
b100101000001010010011 B
0S
bx W
bx D"
bx H"
bx :
bx B"
bx F"
bx A
b1000100 L
b1001000 *
b1001000 7"
b1001000 :"
b1001000 <"
1!
#1950000
0!
#2000000
b1000100 /
b1000100 $"
b1000100 N
b1000100 6"
b1000100 ;"
bx $
bx ]
bx u
bx M"
bx \
bx t
bx ?"
b1001100 *
b1001100 7"
b1001100 :"
b1001100 <"
b1000100 3
b1000100 %"
b1000100 M
b1000100 }
b1000100 +"
b110 X
0T
bx ;
bx K"
bx B
b1001000 L
1!
#2050000
0!
#2100000
b1001000 /
b1001000 $"
b1001000 N
b1001000 6"
b1001000 ;"
b1001000 3
b1001000 %"
b1001000 M
b1001000 }
b1001000 +"
0Q
bx X
b1001100 L
b1010000 *
b1010000 7"
b1010000 :"
b1010000 <"
1!
#2150000
0!
#2200000
b1001100 /
b1001100 $"
b1001100 N
b1001100 6"
b1001100 ;"
b1010100 *
b1010100 7"
b1010100 :"
b1010100 <"
b1001100 3
b1001100 %"
b1001100 M
b1001100 }
b1001100 +"
b1010000 L
1!
#2250000
0!
#2300000
b1010000 /
b1010000 $"
b1010000 N
b1010000 6"
b1010000 ;"
b1010000 3
b1010000 %"
b1010000 M
b1010000 }
b1010000 +"
b1010100 L
b1011000 *
b1011000 7"
b1011000 :"
b1011000 <"
1!
#2350000
0!
#2400000
b1010100 /
b1010100 $"
b1010100 N
b1010100 6"
b1010100 ;"
b1011100 *
b1011100 7"
b1011100 :"
b1011100 <"
b1010100 3
b1010100 %"
b1010100 M
b1010100 }
b1010100 +"
b1011000 L
1!
#2450000
0!
#2500000
b1011000 /
b1011000 $"
b1011000 N
b1011000 6"
b1011000 ;"
b1011000 3
b1011000 %"
b1011000 M
b1011000 }
b1011000 +"
b1011100 L
b1100000 *
b1100000 7"
b1100000 :"
b1100000 <"
1!
#2550000
0!
#2600000
b1011100 /
b1011100 $"
b1011100 N
b1011100 6"
b1011100 ;"
b1100100 *
b1100100 7"
b1100100 :"
b1100100 <"
b1011100 3
b1011100 %"
b1011100 M
b1011100 }
b1011100 +"
b1100000 L
1!
#2650000
0!
#2700000
b1100000 /
b1100000 $"
b1100000 N
b1100000 6"
b1100000 ;"
b1100000 3
b1100000 %"
b1100000 M
b1100000 }
b1100000 +"
b1100100 L
b1101000 *
b1101000 7"
b1101000 :"
b1101000 <"
1!
#2750000
0!
#2800000
b1100100 /
b1100100 $"
b1100100 N
b1100100 6"
b1100100 ;"
b1101100 *
b1101100 7"
b1101100 :"
b1101100 <"
b1100100 3
b1100100 %"
b1100100 M
b1100100 }
b1100100 +"
b1101000 L
1!
#2850000
0!
#2900000
b1101000 /
b1101000 $"
b1101000 N
b1101000 6"
b1101000 ;"
b1101000 3
b1101000 %"
b1101000 M
b1101000 }
b1101000 +"
b1101100 L
b1110000 *
b1110000 7"
b1110000 :"
b1110000 <"
1!
#2950000
0!
#3000000
b1101100 /
b1101100 $"
b1101100 N
b1101100 6"
b1101100 ;"
b1110100 *
b1110100 7"
b1110100 :"
b1110100 <"
b1101100 3
b1101100 %"
b1101100 M
b1101100 }
b1101100 +"
b1110000 L
1!
#3050000
0!
#3100000
b1110000 /
b1110000 $"
b1110000 N
b1110000 6"
b1110000 ;"
b1110000 3
b1110000 %"
b1110000 M
b1110000 }
b1110000 +"
b1110100 L
b1111000 *
b1111000 7"
b1111000 :"
b1111000 <"
1!
#3150000
0!
#3200000
b1110100 /
b1110100 $"
b1110100 N
b1110100 6"
b1110100 ;"
b1111100 *
b1111100 7"
b1111100 :"
b1111100 <"
b1110100 3
b1110100 %"
b1110100 M
b1110100 }
b1110100 +"
b1111000 L
1!
#3250000
0!
#3300000
b1111000 /
b1111000 $"
b1111000 N
b1111000 6"
b1111000 ;"
b1111000 3
b1111000 %"
b1111000 M
b1111000 }
b1111000 +"
b1111100 L
b10000000 *
b10000000 7"
b10000000 :"
b10000000 <"
1!
#3350000
0!
#3400000
b1111100 /
b1111100 $"
b1111100 N
b1111100 6"
b1111100 ;"
b10000100 *
b10000100 7"
b10000100 :"
b10000100 <"
b1111100 3
b1111100 %"
b1111100 M
b1111100 }
b1111100 +"
b10000000 L
1!
#3450000
0!
#3500000
b10000000 /
b10000000 $"
b10000000 N
b10000000 6"
b10000000 ;"
b10000000 3
b10000000 %"
b10000000 M
b10000000 }
b10000000 +"
b10000100 L
b10001000 *
b10001000 7"
b10001000 :"
b10001000 <"
1!
#3550000
0!
#3600000
b10000100 /
b10000100 $"
b10000100 N
b10000100 6"
b10000100 ;"
b10001100 *
b10001100 7"
b10001100 :"
b10001100 <"
b10000100 3
b10000100 %"
b10000100 M
b10000100 }
b10000100 +"
b10001000 L
1!
#3650000
0!
#3700000
b10001000 /
b10001000 $"
b10001000 N
b10001000 6"
b10001000 ;"
b10001000 3
b10001000 %"
b10001000 M
b10001000 }
b10001000 +"
b10001100 L
b10010000 *
b10010000 7"
b10010000 :"
b10010000 <"
1!
#3750000
0!
#3800000
b10001100 /
b10001100 $"
b10001100 N
b10001100 6"
b10001100 ;"
b10010100 *
b10010100 7"
b10010100 :"
b10010100 <"
b10001100 3
b10001100 %"
b10001100 M
b10001100 }
b10001100 +"
b10010000 L
1!
#3850000
0!
#3900000
b10010000 /
b10010000 $"
b10010000 N
b10010000 6"
b10010000 ;"
b10010000 3
b10010000 %"
b10010000 M
b10010000 }
b10010000 +"
b10010100 L
b10011000 *
b10011000 7"
b10011000 :"
b10011000 <"
1!
#3950000
0!
#4000000
b10010100 /
b10010100 $"
b10010100 N
b10010100 6"
b10010100 ;"
b10011100 *
b10011100 7"
b10011100 :"
b10011100 <"
b10010100 3
b10010100 %"
b10010100 M
b10010100 }
b10010100 +"
b10011000 L
1!
#4050000
0!
#4100000
b10011000 /
b10011000 $"
b10011000 N
b10011000 6"
b10011000 ;"
b10011000 3
b10011000 %"
b10011000 M
b10011000 }
b10011000 +"
b10011100 L
b10100000 *
b10100000 7"
b10100000 :"
b10100000 <"
1!
#4150000
0!
#4200000
b10011100 /
b10011100 $"
b10011100 N
b10011100 6"
b10011100 ;"
b10100100 *
b10100100 7"
b10100100 :"
b10100100 <"
b10011100 3
b10011100 %"
b10011100 M
b10011100 }
b10011100 +"
b10100000 L
1!
#4250000
0!
#4300000
b10100000 /
b10100000 $"
b10100000 N
b10100000 6"
b10100000 ;"
b10100000 3
b10100000 %"
b10100000 M
b10100000 }
b10100000 +"
b10100100 L
b10101000 *
b10101000 7"
b10101000 :"
b10101000 <"
1!
#4350000
0!
#4400000
b10100100 /
b10100100 $"
b10100100 N
b10100100 6"
b10100100 ;"
b10101100 *
b10101100 7"
b10101100 :"
b10101100 <"
b10100100 3
b10100100 %"
b10100100 M
b10100100 }
b10100100 +"
b10101000 L
1!
#4450000
0!
